............
----------------------------------------------------------------------
Ran 12 tests in 0.001s

OK
Name               Stmts   Miss Branch BrPart  Cover   Missing
--------------------------------------------------------------
Diplomacy.py          56      0     30      0   100%
TestDiplomacy.py      57      0      0      0   100%
--------------------------------------------------------------
TOTAL                113      0     30      0   100%
